{
    "stepsWallSit": "1. 背倚墙面，面向前方，双脚离墙 2 英尺远，紧贴地面并打开至与肩同宽。\n2. 保持背部紧贴墙面，身体从墙面滑落直至双腿成直角. 膝盖应位置脚踝正上方。\n四肢疼痛很正常，如果膝盖或膝盖骨疼痛则停止该锻炼。",
    "workoutScientific7Minute": "7 分钟科学锻炼",
    "workoutLeg": "腿部锻炼",
    "workoutNeckShoulderStretch": "颈肩拉伸",
    "exerciseJumpingJacks": "跳爆竹",
    "exerciseWallSit": "直角坐墙",
    "exercisePushups": "俯卧撑",
    "exerciseAbCrunches": "仰卧起坐",
    "exerciseSquats": "深蹲",
    "stepsSquats": "1. 双脚打开与肩同宽站立。\n2. 后移臀部并屈膝，同时降低躯干。\n3. 重复。",
    "stepsChairDips": "1. 坐在椅子前部边缘，挺直后背，手撑着椅子前部边缘。\n2. 保持手撑着椅子边缘，伸直手臂以抬起臀部，将臀部往前移使其距离椅子几英寸远。\n3. 挺直后背并缓慢的降低身体，直到手臂呈直角。\n4. 再次抬升身体到之前的位置，手臂伸直。\n5. 重复第3步与第4步。",
    "stepsPlank": "起始姿势：\n1. 四肢着地。\n手臂弯曲成直角，肩部应该正好在肘部上方。\n背部挺直，整个身体在一条直线上。\n\n步骤：\n1. 保持该姿势。",
    "exerciseHighKnees": "高抬腿",
    "stepsHighKnees": "1. 原地跑，将膝盖尽量抬高，并快速地切换抬起来的腿。",
    "stepsLunges": "1. 背部挺直站立。\n2. 左腿大步向前迈。\n3. 身体下压，直到右膝快接触到地面。\n4. 身体上抬。\n5. 后移左脚以恢复站立姿势。\n6. 重复，每次换腿。",
    "exerciseKettlebellDeadlift": "提壶铃",
    "exerciseSumoSquat": "相扑深蹲",
    "exerciseJumpRopeBasic": "基本跳绳",
    "exerciseArmCircles": "前臂绕环",
    "stepsPistolSquat": "1. 单腿站立，另一条腿伸直，略微向前。\n2. 慢慢弯曲膝盖，蹲下，保持背部和另一条腿伸直。\n3. 从深蹲慢慢起身，伸直弯曲的膝盖，保持另一条腿伸直。\n4. 重复。",
    "exerciseLunges": "弓步",
    "exerciseSplitSquatsLeft": "左腿箭步蹲",
    "exerciseSplitSquatsRight": "右腿箭步蹲",
    "exercisePushupRotations": "交替抬肘俯卧撑",
    "exercisePlank": "平板支撑",
    "exerciseChairDips": "撑椅肱三头肌撑体",
    "stepsStepups": "1. 面对椅子站立。\n2. 走到椅子上。\n3. 走下椅子。\n4. 重复。",
    "exerciseSidePlankLeft": "左前臂平板支撑",
    "exerciseSidePlankRight": "右前臂平板支撑",
    "exerciseSideSplitSquatsLeft": "左腿侧箭步蹲",
    "exerciseSideSplitSquatsRight": "右腿侧箭步蹲",
    "exerciseBulgarianSplitSquatLeft": "左保加利亚分腿蹲",
    "exerciseBulgarianSplitSquatRight": "右保加利亚分腿蹲",
    "exercisePistolSquatLeft": "左腿手枪式深蹲",
    "exercisePistolSquatRight": "右腿手枪式深蹲",
    "stepsSideSplitSquats": "1. 站直，两腿分开，略大于肩宽。\n2. 弯曲一侧膝盖，直到大腿与地面平行。弯下的膝盖应与另一只脚对齐。\n3. 撑回起始位置，重复。",
    "stepsSidePlank": "1. 侧身躺下，下肘部成直角，手臂伸出。\n2. 抬起下侧肩膀，将您的骨盆抬离地面，前臂保持在地面上。您的头、骨盆和脚应该在一条直线上。\n3. 保持这个姿势。",
    "stepsBulgarianSplitSquat": "1. 在椅子前站直，迈出一大步。将另一只脚的脚背放在椅子上。\n2. 弯曲前膝，用手臂保持平衡，直到后膝几乎接触地面。\n3. 撑回起始位置并重复。",
    "exerciseSingleLegCalfRaiseLeft": "左腿提踵",
    "exerciseSingleLegCalfRaiseRight": "右腿提踵",
    "stepsSingleLegCalfRaise": "1. 站在地板上或者台阶的边缘上，保证运动范围足够。抬起一条腿，脚背靠在小腿上。\n2. 抬起支撑脚的脚跟，用脚尖站立。\n3. 保持三秒钟，然后落下脚跟，但保持脚跟不接触地面。",
    "stepsKneelingKickback": "1. 四肢着地。\n2. 将一只脚向后推，直至完全伸展，专注于臀部肌肉。\n3. 停留一秒，然后回复初始位置。\n4. 换脚，重复。",
    "stepsArmCircles": "1. 站直，背部挺直。\n2. 双臂伸直，置于身前，并向下摆到您的背后，然后挥到头上方，然后回到初始位置。\n3. 按照步骤2中的描述继续盘旋双臂。",
    "stepsBWArmCircles": "1. 站直，背部挺直。\n2. 双臂伸直，置于身前，然后挥到头上方，然后向下摆到您的背后，并回到初始位置。\n3. 按照步骤2中的描述继续盘旋双臂。",
    "exerciseMountainClimbers": "登山者式",
    "exercisePushupBurpees": "波比跳",
    "exercise4countBurpees": "四联波比跳",
    "steps4countBurpees": "起始姿势：\n站直，双脚分开与臀部同宽。\n\n步骤：\n1. 深蹲蹲下，双手放在膝盖之间脚前，支撑在地板上；背部挺直。\n2. 双手放在地板上，双腿向后跳到高平板支撑的位置。\n3. 双脚向前跳，回到下蹲位置。\n4. 重复。",
    "exerciseNoPushupBurpees": "半程波比跳",
    "stepsNoPushupBurpees": "起始姿势：\n站直，双脚分开与臀部同宽。\n\n步骤：\n1. 深蹲蹲下，双手放在膝盖之间脚前，支撑在地板上；背部挺直。\n2. 双手放在地板上，双腿向后跳到高平板支撑的位置。\n3. 双脚向前跳，回到下蹲位置。\n4. 跳起。\n5. 重复。",
    "stepsSquatThrusts": "起始姿势：\n以高位平板支撑姿势开始：背部、手臂和腿均伸直，双手分开与肩同宽。\n\n步骤：\n1. 双脚向双臂的方向向前跳，保持背部平直。\n2. 双手撑地，双腿跳回高位平板支撑位置。\n3. 重复。",
    "exerciseReverseLunges": "反向弓步",
    "stepsHeadTurn": "起始姿势：\n坐位或站位，背部挺直，肩部向下。\n\n步骤：\n1. 坐直（站直），放松肩部。\n2. 尽可能地把头转向一侧，在您感到阻碍时停下来，保持5秒钟。\n3. 回到中间位置，换边，重复。",
    "exerciseNeckFlexion": "后颈部拉伸",
    "exerciseRightNeckStretch": "右颈部拉伸",
    "exerciseShoulderShrug": "耸肩运动",
    "exerciseFrontNeckStretch": "前颈部拉伸",
    "stepsNeckFlexion": "起始姿势：\n在椅子或较硬的枕头上坐直。\n\n步骤：\n1. 呼气，头向前倾斜，下巴靠在胸前，双手放在脑后。\n2. 用手将头轻轻向下拉。保持5秒钟。\n3. 用背部肌肉将肩膀向后、向下拉，加大颈部伸展的程度。保持5秒钟。\n4. 现在用项部肌肉轻轻地把头往上抬，同时用手把头往下拉。平衡这两种力量，保持头不移动。至少保持5秒钟。\n5. 把手指掌面放在额头上，轻轻地将头移回原来的位置。",
    "exerciseChinTuckFlexionRotation": "收颏曲颈转头",
    "exerciseBackLeftNeckStretch": "左、后颈部拉伸",
    "exerciseBackRightNeckStretch": "右、后颈部拉伸",
    "stepsHighPlank": "起始姿势：\n开始高位平板支撑：手和脚趾接触地面，背部平直，手臂和腿伸直。\n做这个姿势，您可以趴在地上，手掌朝下放在您头部两边，然后抬起并且伸直手臂。\n\n步骤：\n1. 在整个练习过程中保持一开始的姿势。",
    "exerciseChildsPose": "婴儿式",
    "stepsChildsPose": "起始姿势：\n开始时四肢着地，膝盖、脚趾、手接触地面，两个大脚趾相碰。\n\n步骤：\n1. 移动你的膝盖，使之与臀部同宽。\n2. 呼气，同时将骨盆向后移动。保持手接触地面，坐在您的脚后跟上。\n3. 放松上半身，将额头贴向地面，手自然向前移动。\n4. 保持这个姿势。\n\n提示：\n* 结束这个姿势，您可以把手臂收回到肩膀下，移动上半身，坐起。",
    "exercisePullUp": "引体向上",
    "stepsKettlebellDeadlift": "起始位置：\n站位，双脚与臀部同宽，壶铃位于脚踝之间。背部挺直，头朝前。\n\n步骤：\n1. 背部保持平直，以臀部为轴，微微弯曲膝盖，手放在壶铃把手上。\n2. 抓住壶铃把手，双手向相反方向推动，好像在拉弹簧一样。\n3. 接触到腹肌和臀大肌时，站直。\n4. 再次以臀部为轴，将壶铃放回原位，类似于步骤1。\n5. 从第 3 步重复。\n\n提示：\n* 一定要按正确的方式做这些动作，否则可能会导致受伤。例如，不要蹲下而不以臀部为轴、在伸手去拿壶铃时不要弯腰、站立时不要向后倾斜。",
    "stepsAbCrunches": "1. 双膝弯曲躺在地板上，面朝上。\n2. 将肩膀向骨盆方向弯曲。双手可以放在脖子后面或旁边，或在胸前交叉。\n3. 重复",
    "exerciseStepups": "仰卧起坐",
    "stepsPushupRotations": "1. 做一个标准的俯卧撑：\n1.a 俯卧在地上。\n1.b 将手放在耳朵附近。\n1.c 保持背部挺直，用你的手臂把你的腹部撑起，直到手臂伸直。\n1.d 保持背部挺直，弯曲手臂，直到胸部几乎接触到地面。\n1.e 再次撑起腹部，回到步骤c。\n2. 将身体转到侧面，使背部挺直，支撑身体的手完全张开，只有这只手和脚接触地面。\n3. 重复，做第2步时每次换边。",
    "exerciseKneelingKickback": "跪姿屈膝抬腿",
    "stepsJumpRopeBasic": "这项练习需要绳子。根据您的身高调整绳索长度。有一种调整方法：一手抓住跳绳的两支手柄，一只脚站在悬在地上的绳索的中间。如果绳子（不包括手柄）刚好到您的胸部下方，长度就正好。太短的跳绳很危险，因为可能会打到您自己。过长的跳绳也不好，会导致姿势不良。\n1. 双脚并拢，膝盖稍微弯曲，保持头部和身体挺直，肘部向内，张开双臂。\n2. 只转动手腕，挥动跳绳。\n3. 跳起，让绳子穿过您脚下。\n4. 从第2步重复。",
    "exerciseBWArmCircles": "大臂绕环",
    "exerciseLeftNeckStretch": "左颈部拉伸",
    "stepsPushupBurpees": "起始姿势：\n站直，双脚分开与臀部同宽。\n\n步骤：\n1. 深蹲蹲下，双手放在膝盖之间脚前，支撑在地板上；背部挺直。\n2. 双手放在地板上，双腿向后跳到高平板支撑的位置。\n3. 做一个俯卧撑。\n4. 双脚向前跳，回到下蹲位置。\n5. 重复。",
    "exerciseSquatThrusts": "俯卧撑腿屈伸",
    "stepsReverseLunges": "起始姿势：\n站直，双脚分开与臀部同宽。\n\n步骤：\n1. 一条腿向后迈步，使膝盖能舒适地弯曲成90度角。\n2. 慢慢弯曲双膝，双膝均成 90 度角。\n3. 回到起始位置。\n4. 换腿，重复。",
    "exerciseLegRaises": "抬腿",
    "stepsLegRaises": "起始姿势：\n仰卧，双脚并拢，双臂放在身体两侧。\n\n步骤：\n1. 弯曲膝盖，再向上伸直，使双腿直立。\n2. 保持双腿伸直，一起放下，不接触地面。双腿越低，运动的强度就越大。\n3. 两条腿一并抬起，再次竖直立起双腿。\n4. 从第2步重复。",
    "exerciseFloorDips": "伏地挺身",
    "stepsFloorDips": "起始姿势：\n坐在地上，双臂后放撑地，支撑上半身。\n手指要指向前方。\n膝盖弯曲，双脚并拢。\n\n步骤：\n1. 抬起臀部，离开地面，伸直手臂。\n2. 弯曲肘部，臀部向下。\n3. 伸直手臂，回到之前的位置。\n4. 重复步骤2和步骤3。\n\n注：\n练习难度取决于臀部撑起得有多高。",
    "exercisePikePushups": "折刀俯卧撑",
    "stepsPikePushups": "起始姿势：\n下犬式：身体成V字形，背部、手臂和腿部挺直，臀部翘在空中。\n您可以先做高位平板支撑的姿势，然后将双手向后移来形成这个姿势。\n\n步骤：\n1. 将两个肘部向一侧弯曲，保持背部和腿部挺直，将头靠近地面。\n2. 伸直双臂，将臀部向后推，保持背部和腿部挺直。\n3. 重复。",
    "exerciseChinTuck": "收下巴运动",
    "stepsChinTuck": "起始姿势：\n坐位或站位，背部挺直。\n\n步骤：\n1. 将手指放在下巴上，慢慢将下巴收起；头部向后移，与脊柱对齐。\n2. 保持5秒钟。\n3. 头部回到正常位置，重复。",
    "exerciseHeadTurn": "转头",
    "stepsPushups": "起始姿势：\n先做俯卧撑的起始姿势，双手和脚趾接触地面，背部、手臂和腿伸直。要做这个姿势，你可以趴在地上，将双手朝下放在头的旁边，然后将手臂抬起，直到手臂伸直。\n\n步骤：\n1. 弯下肘部，直到你的胸部几乎接触到地面。确保你的背部始终是直的。\n2. 用你的双臂将自己撑起来，回到起始位置。\n3. 重复上述动作。",
    "stepsShoulderShrug": "起始位置：\n坐位或站位，背部挺直。\n\n步骤：\n1. 将肩膀尽可能地向上抬起，保持 5 秒。\n2. 肩膀回到放松的位置。\n3. 重复。",
    "stepsLateralNeckStretch": "起始位置：\n坐位或站位，背部挺直。\n\n步骤：\n1. 将头向一侧倾斜，保持8秒钟，以伸展您颈部的另一侧。\n2. 把倾斜一侧的手放在头顶上，轻轻拉动，进一步伸展。保持8秒钟。\n3. 将下巴转向肩部。保持8秒钟。\n4. 松开手，回到起始位置。",
    "stepsFrontNeckStretch": "起始位置：\n坐位或站位，背部挺直。\n\n步骤：\n1. 张大嘴巴。\n2. 保持嘴张开，慢慢仰头。可以将双手放在脑后支撑头部。\n3. 慢慢地合上嘴再张开。\n4. 最后，慢慢回到起始位置，合上嘴部。",
    "stepsBackLateralNeckStretch": "起始姿势：\n在椅子或较硬的坐垫上坐直。\n\n步骤：\n1. 呼气，头前倾，下巴靠胸，双手放在脑后。\n2. 保持头部前倾，用腰部肌肉尽可能地向一侧转身，到一个舒适的位置。\n3. 用手把头略微向下拉。\n4. 用背部肌肉将肩膀向后、向下拉。保持5秒钟。\n5. 转身，回到中间位置。\n6. 把手放在额头上，将头推回正常位置。",
    "exerciseFWShoulderRotation": "肩部向前绕环",
    "stepsChinTuckFlexionRotation": "起始位置：\n坐位或站位，背部挺直。\n\n步骤：\n1. 收起下巴，头向后移。\n2. 头向前倾，直到脖子后部有拉伸感。\n3. 呼气，用手指顶在太阳穴上引导头部，同时施加一点压力，将头转向一侧。\n4. 保持 5 秒钟。\n5. 保持低头，向后转头。\n6. 换边，从第 3 步重复。",
    "exerciseBWShoulderRotation": "肩部向后绕环",
    "stepsShoulderRotation": "起始姿势：\n坐位或站位，背部挺直。\n\n步骤：\n1. 将双手放在肩膀上。\n2. 以适中的速度不断绕转两侧肩关节。",
    "exerciseHighPlank": "高位平板支撑",
    "stepsPullUp": "起始姿势：\n先悬挂在单杠上，手掌朝前，双脚离地。\n双手比肩稍宽。不要太宽，肘部不要在身体两边，要在身体前面。\n身体应为伸直，略微向前的状态。手臂应处于伸展状态。\n\n步骤：\n1. 用力均匀地拉起你的身体，使胸部靠近单杠，下巴刚好超过横杆。不要跃起或晃起身体，比如踢腿。\n2. 小心地把身体放下来，回到起始位置。\n3. 重复进行。\n\n提示：\n——引体向上要想做得正确，您必须先增强几个关键部位的力量，包括肩膀、手臂和腹肌。您应该通过其他练习积累了足够的力量后，再开始做引体向上。",
    "stepsSumoSquat": "起始姿势：\n站起，双腿张开，脚趾向外。\n\n步骤：\n1. 膝盖向外弯曲，慢慢往下沉。将手臂向前伸。头部、胸部和臀部保持在一条直线上。挤压臀部。\n2. 向上撑回到起始位置。\n3. 脉冲式地重复上述动作。",
    "stepsMountainClimbers": "起始姿势：\n以俯卧撑或高位平板支撑的挺直姿势开始。\n双手应正对双肩。\n保持头部与背部在一个平面上；面向地板。\n双脚分开大约与臀部同宽。\n\n步骤：\n1. 将一侧膝盖向身体中心移动，再向肘部移动，另一条腿保持伸展。\n2. 快速跳起，将弯曲的腿伸直，将另一只膝盖拉向身体。\n3. 重复第2步，双腿交替。\n\n注意：\n在锻炼全过程中，背部要尽可能地保持挺直，避免驼背和背部下垂的情况。",
    "stepsJumpingJacks": "1. 双脚并拢站立，手臂放在两侧。\n2. 跳起，双腿分开，双手于头顶上方接触。\n3. 重复上述动作。",
    "stepsSplitSquats": "1. 站立，背部挺直。\n2. 用左腿向前迈出一大步。\n3. 骨盆向下，直到您的右膝几乎接触到地板。\n4. 抬起骨盆。\n5. 从第3步重复。"
}
